﻿current_min,time_min,current_max,time_max
10000.0,0.03534,10000.0,0.03534
10000.0,0.03534,10000.0,0.01495
7000.0,0.05642,10000.0,0.01495
5000.0,0.0985,10000.0,0.01495
3000.0,0.2927,10000.0,0.01495
2000.0,0.938,3913.0518,0.1
1234.457,7.0,3000.0,0.1757
1154.437,10.0,2424.462,0.3
1000.0,22.7366,2000.0,0.5161
876.6524,60.0,1234.457,3.0
829.696,80.0,1000.0,7.7296
798.522,100.0,700.0,77.9494
700.0,174.2722,600.0,152.0609
665.7096,200.0,552.3365,200.0
602.0406,300.0,503.1103,300.0
578.0351,400.0,478.9551,422.407
579.9681,494.8168,478.9551,599.1965
579.9681,590.454,,
