﻿current_min,time_min,current_max,time_max
255.231,0.0134,255.231,0.0134
255.231,0.0134,255.231,0.0134
49.9829,0.1228,109.1009,0.0134
28.0884,0.2732,109.1009,0.0134
12.1831,1.2129,109.1009,0.0134
8.7738,2.8408,13.5425,0.4658
7.6103,4.7862,7.1789,1.6796
6.4113,10.3241,5.323,4.5127
5.362,42.5369,4.7366,9.178
5.0213,100.4159,4.308,24.6603
4.8238,296.4361,4.0786,74.8256
,,3.9903,300.0
