﻿current_min,time_min,current_max,time_max
261.8318,0.0134,261.8318,0.0134
261.8318,0.0134,261.8318,0.0135
94.9797,0.0518,108.7037,0.0135
44.802,0.1436,108.7037,0.0135
19.7902,0.6082,108.7037,0.0135
14.5143,1.2564,38.5787,0.0982
11.1213,2.7531,16.4908,0.4921
9.2672,5.6212,11.6189,1.0573
8.3674,10.2837,9.4722,2.3258
7.5001,38.413,7.7222,5.5555
7.1789,296.4361,6.9471,9.8109
,,6.4819,17.9484
,,6.2043,41.7108
,,6.0039,300.0
