﻿current_min,time_min,current_max,time_max
10000.0,0.013152,10000.0,0.013152
10000.0,0.013152,10000.0,0.01
4761.61,0.013152,1106.15,0.01
3914.1,0.014064,1106.15,0.01
3141.14,0.015053,1106.15,0.01
2608.0,0.016193,1023.18,0.011626
2109.78,0.017914,915.48,0.01462
1810.47,0.01964,816.561,0.018479
1533.55,0.021684,722.298,0.023819
1277.09,0.025396,637.59,0.030514
1102.5,0.029183,572.256,0.038054
955.603,0.034453,517.367,0.046202
812.684,0.042589,465.318,0.057383
704.398,0.051759,415.904,0.071564
627.249,0.060983,373.286,0.089527
554.653,0.073891,326.779,0.114807
490.46,0.090703,295.743,0.139677
431.101,0.111786,268.212,0.168016
361.168,0.148204,243.496,0.20336
310.239,0.193561,217.638,0.253616
265.428,0.259198,195.539,0.313369
234.708,0.330165,176.234,0.384016
207.336,0.426492,161.666,0.460501
177.922,0.590869,146.616,0.570172
158.276,0.776343,133.66,0.711814
143.358,0.998841,124.667,0.859776
129.715,1.32424,115.078,1.09461
117.606,1.84751,108.344,1.3331
109.436,2.50137,102.217,1.64889
101.225,3.62858,95.5392,2.15191
94.9496,5.25323,89.9491,2.77097
90.3188,7.52961,85.5711,3.4629
86.5174,10.3692,82.0007,4.22175
83.2082,13.6241,78.6609,5.42504
78.913,20.902,75.8504,6.91397
75.1395,31.1199,73.6745,8.949
72.7003,43.3301,71.4124,11.5472
69.5709,63.7423,69.5081,14.0631
67.0438,90.0036,67.444,17.9413
64.4794,129.651,65.7139,22.1226
62.8874,179.441,64.1613,27.8185
61.3347,234.358,62.6455,34.6934
60.4216,299.721,61.2291,42.3834
,,59.5964,54.0715
,,58.0676,69.5547
,,56.5192,89.0111
,,55.2987,112.973
,,54.1609,139.015
,,52.8264,171.059
,,51.8471,211.58
,,51.098,253.72
,,50.1508,301.753
