﻿current_min,time_min,current_max,time_max
10000.0,0.013165,10000.0,0.013165
10000.0,0.013165,10000.0,0.01
6169.3,0.013165,1421.06,0.01
5336.58,0.013621,1421.06,0.01
4338.74,0.014579,1421.06,0.01
3523.96,0.015793,1299.54,0.01182
2690.12,0.01804,1148.32,0.015126
2126.73,0.020709,1034.95,0.01869
1732.53,0.024206,931.802,0.022974
1384.84,0.029565,845.058,0.028067
1155.56,0.035931,766.39,0.034146
973.933,0.044862,695.768,0.041758
824.967,0.056917,625.121,0.05181
707.928,0.072937,565.749,0.063163
611.762,0.09235,507.777,0.076925
539.338,0.115306,466.287,0.090924
470.287,0.147613,415.04,0.11457
409.666,0.186903,364.467,0.146618
354.016,0.245082,330.537,0.17673
316.19,0.302352,293.904,0.222233
316.506,0.301145,261.06,0.280029
261.738,0.437726,233.822,0.34672
216.014,0.66288,213.16,0.423135
189.302,0.911959,196.15,0.510563
166.225,1.30975,180.123,0.620522
144.509,2.11454,165.922,0.772278
131.807,3.39683,152.523,0.975134
122.039,5.32197,141.966,1.20861
114.932,8.04334,133.382,1.4949
105.04,14.0953,125.447,1.89734
98.2333,22.8933,118.476,2.39325
93.9108,33.1435,112.593,3.02189
90.4092,47.9351,107.559,3.88319
86.0859,70.2351,103.178,4.98484
82.9589,101.377,99.4921,6.18476
80.4267,140.169,97.2425,7.44727
78.1278,197.719,93.6707,9.33578
76.9646,258.23,90.7946,11.7758
76.5808,299.421,88.19,14.8844
,,85.3934,18.736
,,82.428,24.101
,,79.4003,32.4425
,,77.7666,39.4703
,,75.3005,50.8774
,,73.2926,65.2438
,,71.7845,80.3662
,,69.8704,100.02
,,68.6465,124.096
,,67.0247,153.81
,,65.5092,190.048
,,64.7644,223.475
,,63.2343,268.815
,,62.972,302.376
