﻿current_min,time_min,current_max,time_max
10000.0,0.013152,10000.0,0.013152
10000.0,0.013152,10000.0,0.01
940.435,0.013152,142.855,0.01
567.558,0.016586,142.855,0.01
295.699,0.023965,142.855,0.01
149.357,0.042039,104.8,0.018384
95.2348,0.067599,76.0873,0.034394
49.9662,0.164942,50.5171,0.077323
27.5319,0.449256,34.4231,0.164753
16.3519,1.17449,24.2751,0.332699
12.9144,1.95588,16.8714,0.700157
10.9173,3.04604,13.1462,1.18882
9.07341,6.25164,9.83661,2.34678
8.46,10.2866,8.20903,4.00117
8.07965,17.8293,7.25385,7.39366
7.91966,26.1238,6.90078,10.7535
7.80956,42.0495,6.68195,15.2105
7.71641,63.1712,6.49702,23.4388
7.58634,93.8642,6.3172,33.1191
7.51085,146.035,6.21946,47.5275
7.37687,207.649,6.12323,80.5322
7.28159,278.899,6.09149,119.078
7.28887,299.721,6.03477,164.651
,,5.99101,233.615
,,5.97857,302.064
