﻿current_min,time_min,current_max,time_max
10000.0,0.013854,10000.0,0.013854
10000.0,0.013854,10000.0,0.01
7110.59,0.016922,3802.22,0.01
5712.09,0.01964,3802.22,0.01
4565.76,0.023514,3802.22,0.01
3756.87,0.027815,3106.77,0.015008
3185.42,0.033135,531.84,0.495018
2788.73,0.039157,489.48,0.59146
2366.91,0.048598,441.573,0.742925
1961.26,0.064109,410.487,0.896587
1633.27,0.085421,382.353,1.08203
1327.88,0.120734,361.891,1.27869
1061.39,0.180114,345.621,1.50959
823.318,0.291953,321.611,1.9914
624.745,0.509074,306.538,2.50388
527.075,0.749641,295.699,3.03691
460.514,1.05954,281.559,4.02628
414.612,1.44028,272.419,5.03716
379.685,1.9914,263.05,6.52632
356.147,2.74791,256.555,8.00322
339.456,3.50728,248.973,10.0026
323.547,4.90298,240.65,12.9467
306.538,7.1338,235.413,16.0522
296.291,9.64891,229.142,20.0824
286.387,12.4018,223.261,25.2252
270.79,19.3529,213.651,35.1227
259.393,27.6561,206.922,44.4714
246.003,43.0709,198.213,59.9702
235.649,59.5519,194.483,71.3679
225.28,80.7897,188.735,89.734
214.507,110.924,181.516,120.765
205.89,150.483,175.273,152.452
198.015,203.741,168.737,204.149
192.933,253.37,163.587,255.405
190.251,300.321,159.707,302.128
